compressed_data_localization/data/Flavio/Faults_d90_FPP_IDC-20250701T175739Z-1-001/Faults_d90_FPP_IDC/tek0501.csv

Model,MSO4054
Firmware Version,2.48

Point Format,Y,,,
Horizontal Units,S,,,
Horizontal Scale,4e-05,,,
Sample Interval,4e-09,,,
Record Length,100000,,,
Gating,0.0% to 100.0%,0.0% to 100.0%,0.0% to 100.0%,0.0% to 100.0%
Probe Attenuation,50,50,1,1
Vertical Units,V,V,A,A
Vertical Offset,-0.16,0.06,0,0
Vertical Scale,5,10,0.32,0.09
Label,VPPR,VPPL,IPR,IPL
TIME,CH1,CH2,CH3,CH4
-9.44000e-05,40.84,80.06,-0.288,0.2736
-9.43960e-05,41.04,80.06,-0.288,0.2772
-9.43920e-05,40.44,80.06,-0.3008,0.2772
-9.43880e-05,41.24,80.46,-0.288,0.2736
-9.43840e-05,40.84,79.66,-0.3008,0.27
-9.43800e-05,40.64,80.06,-0.3008,0.27
-9.43760e-05,40.64,79.66,-0.2752,0.27
-9.43720e-05,40.64,80.06,-0.3008,0.27
-9.43680e-05,40.44,80.46,-0.3008,0.2736
-9.43640e-05,40.64,80.06,-0.288,0.2772
-9.43600e-05,41.04,80.86,-0.288,0.2736
-9.43560e-05,41.04,80.46,-0.2752,0.27
-9.43520e-05,40.64,80.46,-0.288,0.2772
-9.43480e-05,40.84,79.66,-0.2752,0.2736
-9.43440e-05,41.04,79.66,-0.3008,0.2736
-9.43400e-05,40.64,79.66,-0.288,0.2772
-9.43360e-05,40.84,79.66,-0.2752,0.2736
-9.43320e-05,40.84,80.06,-0.3008,0.2772
-9.43280e-05,40.84,79.66,-0.3008,0.2772
-9.43240e-05,40.84,79.66,-0.288,0.2736
-9.43200e-05,40.84,80.06,-0.2624,0.2772
-9.43160e-05,40.64,80.06,-0.3008,0.2772
-9.43120e-05,40.84,79.66,-0.288,0.2772
-9.43080e-05,41.24,80.46,-0.288,0.2736
-9.43040e-05,40.64,80.46,-0.288,0.2736
-9.43000e-05,40.44,80.06,-0.288,0.2772
-9.42960e-05,40.84,80.86,-0.288,0.2772
-9.42920e-05,40.64,80.06,-0.288,0.2808
-9.42880e-05,40.84,80.46,-0.3008,0.2772
-9.42840e-05,40.84,80.06,-0.3008,0.2736
-9.42800e-05,41.44,80.06,-0.3008,0.2736
-9.42760e-05,40.84,80.46,-0.2752,0.2772
-9.42720e-05,41.04,80.06,-0.288,0.2736
-9.42680e-05,41.04,80.06,-0.2752,0.2772
-9.42640e-05,40.84,80.06,-0.288,0.2736
-9.42600e-05,40.84,80.06,-0.3136,0.2736
-9.42560e-05,41.04,80.06,-0.288,0.2772
-9.42520e-05,40.84,80.46,-0.288,0.2772
-9.42480e-05,40.44,80.06,-0.2752,0.2772
-9.42440e-05,40.84,79.66,-0.3008,0.2736
-9.42400e-05,41.24,80.06,-0.288,0.2772
-9.42360e-05,40.84,80.06,-0.3136,0.2808
-9.42320e-05,40.84,80.06,-0.3008,0.2736
-9.42280e-05,41.04,80.46,-0.3136,0.2772
-9.42240e-05,40.64,79.66,-0.288,0.2772
-9.42200e-05,41.04,80.06,-0.3008,0.2736
-9.42160e-05,40.84,80.06,-0.3008,0.2772
-9.42120e-05,40.84,79.66,-0.3008,0.2772
-9.42080e-05,40.84,80.06,-0.2752,0.2772
-9.42040e-05,41.04,80.06,-0.3008,0.27
-9.42000e-05,40.84,80.06,-0.288,0.2772
-9.41960e-05,40.84,80.46,-0.288,0.2736
-9.41920e-05,40.84,80.46,-0.288,0.2736
-9.41880e-05,40.84,80.46,-0.3008,0.2772
-9.41840e-05,41.04,80.06,-0.3008,0.2736
-9.41800e-05,41.04,80.06,-0.3008,0.2736
-9.41760e-05,40.84,80.06,-0.3136,0.2736
-9.41720e-05,40.84,80.06,-0.288,0.2772
-9.41680e-05,40.64,80.46,-0.3008,0.2736
-9.41640e-05,41.04,80.06,-0.3008,0.2736
-9.41600e-05,40.64,80.06,-0.288,0.2736
-9.41560e-05,40.64,80.06,-0.2752,0.2772
-9.41520e-05,40.44,80.06,-0.288,0.2772
-9.41480e-05,40.64,80.46,-0.288,0.2772
-9.41440e-05,41.04,79.66,-0.288,0.2772
-9.41400e-05,41.04,80.06,-0.3008,0.27
-9.41360e-05,40.84,80.06,-0.3136,0.2772
-9.41320e-05,40.84,80.46,-0.3008,0.2736
-9.41280e-05,41.04,80.06,-0.3008,0.2772
-9.41240e-05,40.44,80.86,-0.288,0.2772
-9.41200e-05,41.04,80.46,-0.2752,0.2772
-9.41160e-05,40.84,80.06,-0.2752,0.2736
-9.41120e-05,40.84,80.06,-0.288,0.2736
-9.41080e-05,40.84,80.06,-0.3008,0.2772
-9.41040e-05,40.84,79.66,-0.288,0.2736
-9.41000e-05,40.64,80.06,-0.288,0.2736
-9.40960e-05,40.84,80.06,-0.3008,0.27
-9.40920e-05,41.04,80.46,-0.288,0.2772
-9.40880e-05,41.04,80.06,-0.3136,0.2736
-9.40840e-05,40.84,79.66,-0.3008,0.2736
-9.40800e-05,40.84,80.06,-0.2752,0.2736
-9.40760e-05,41.04,80.46,-0.3008,0.27
-9.40720e-05,41.04,80.06,-0.288,0.2772
-9.40680e-05,40.84,80.06,-0.288,0.27
-9.40640e-05,40.84,80.46,-0.288,0.2772
-9.40600e-05,40.84,80.06,-0.2752,0.2772
-9.40560e-05,40.84,80.06,-0.288,0.27
-9.40520e-05,40.84,79.66,-0.3008,0.2736
-9.40480e-05,40.44,79.66,-0.3008,0.2736
-9.40440e-05,41.04,80.46,-0.288,0.27
-9.40400e-05,40.64,80.06,-0.288,0.2772
-9.40360e-05,40.64,80.46,-0.3008,0.2772
-9.40320e-05,41.04,80.46,-0.3008,0.2772
-9.40280e-05,40.44,80.06,-0.2752,0.2736
-9.40240e-05,40.64,80.06,-0.288,0.2772
-9.40200e-05,40.84,80.06,-0.3008,0.27
-9.40160e-05,41.24,80.46,-0.288,0.27
-9.40120e-05,40.64,80.46,-0.288,0.2772
-9.40080e-05,40.84,80.46,-0.288,0.2736
-9.40040e-05,40.84,80.06,-0.288,0.2772
-9.40000e-05,40.44,80.46,-0.288,0.2772
-9.39960e-05,41.04,80.06,-0.288,0.2736
-9.39920e-05,41.04,80.06,-0.288,0.2736
-9.39880e-05,40.84,80.06,-0.2752,0.2772
-9.39840e-05,40.84,79.66,-0.288,0.2736
-9.39800e-05,40.84,79.66,-0.288,0.2808
-9.39760e-05,41.24,80.86,-0.2752,0.2736
-9.39720e-05,40.84,80.86,-0.2624,0.2772
-9.39680e-05,40.84,80.06,-0.2752,0.27
-9.39640e-05,40.64,80.46,-0.288,0.2772
-9.39600e-05,40.84,80.06,-0.288,0.2772
-9.39560e-05,40.84,80.06,-0.3136,0.2736
-9.39520e-05,40.84,80.06,-0.288,0.2736
-9.39480e-05,40.64,79.66,-0.2752,0.2736
-9.39440e-05,40.84,79.66,-0.3008,0.2772
-9.39400e-05,40.84,80.06,-0.288,0.2736
-9.39360e-05,40.84,80.06,-0.288,0.2772
-9.39320e-05,40.64,80.06,-0.2752,0.2736
-9.39280e-05,40.84,80.06,-0.288,0.2772
-9.39240e-05,41.04,79.66,-0.2752,0.27
-9.39200e-05,40.84,80.06,-0.288,0.2772
-9.39160e-05,41.04,80.46,-0.3008,0.2772
-9.39120e-05,40.84,79.66,-0.288,0.2772
-9.39080e-05,41.04,80.06,-0.3136,0.2772
-9.39040e-05,41.24,80.46,-0.3008,0.27
-9.39000e-05,40.64,80.06,-0.3008,0.2772
-9.38960e-05,41.04,80.06,-0.3008,0.2772
-9.38920e-05,40.84,80.06,-0.3008,0.2808
-9.38880e-05,40.84,80.06,-0.3008,0.2772
-9.38840e-05,40.84,80.06,-0.288,0.2808
-9.38800e-05,41.04,80.06,-0.288,0.2772
-9.38760e-05,40.84,80.06,-0.288,0.27
-9.38720e-05,40.44,79.66,-0.288,0.2736
-9.38680e-05,40.84,80.06,-0.288,0.2808
-9.38640e-05,41.24,80.06,-0.288,0.2772
-9.38600e-05,40.84,79.66,-0.3008,0.2772
-9.38560e-05,41.04,79.66,-0.2752,0.2736
-9.38520e-05,40.64,80.06,-0.288,0.2772
-9.38480e-05,40.64,80.06,-0.3008,0.2808
-9.38440e-05,41.04,80.06,-0.3008,0.2772
-9.38400e-05,41.24,80.06,-0.3136,0.2736
-9.38360e-05,40.84,80.06,-0.288,0.2736
-9.38320e-05,41.04,80.06,-0.2752,0.2772
-9.38280e-05,40.64,80.06,-0.3008,0.2772
-9.38240e-05,40.64,80.06,-0.3008,0.2772
-9.38200e-05,40.84,80.06,-0.2752,0.27
-9.38160e-05,40.84,80.06,-0.3008,0.2736
-9.38120e-05,40.84,80.46,-0.3008,0.2772
-9.38080e-05,40.64,80.06,-0.288,0.2736
-9.38040e-05,41.04,80.06,-0.2752,0.2736
-9.38000e-05,40.44,80.46,-0.288,0.2808
-9.37960e-05,40.84,80.46,-0.2752,0.2736
-9.37920e-05,40.84,80.06,-0.2752,0.27
-9.37880e-05,40.64,80.06,-0.288,0.2772
-9.37840e-05,41.04,80.06,-0.3008,0.2772
-9.37800e-05,40.84,80.06,-0.288,0.2808
-9.37760e-05,40.84,80.46,-0.3008,0.2772
-9.37720e-05,41.04,80.46,-0.288,0.2736
-9.37680e-05,40.64,80.06,-0.3008,0.2772
-9.37640e-05,40.44,79.66,-0.3008,0.2808
-9.37600e-05,40.84,80.46,-0.288,0.2772
-9.37560e-05,40.64,80.46,-0.3008,0.2736
-9.37520e-05,40.84,80.06,-0.288,0.27
-9.37480e-05,41.04,79.66,-0.2752,0.2772
-9.37440e-05,40.44,80.46,-0.2752,0.2736
-9.37400e-05,41.04,80.06,-0.3008,0.2808
-9.37360e-05,41.04,80.06,-0.2752,0.2772
-9.37320e-05,40.84,80.06,-0.3136,0.2772
-9.37280e-05,41.04,80.46,-0.288,0.2772
-9.37240e-05,40.84,80.06,-0.2752,0.2736
-9.37200e-05,40.64,80.86,-0.288,0.2772
-9.37160e-05,40.84,80.06,-0.288,0.2736
-9.37120e-05,40.84,80.46,-0.288,0.27
-9.37080e-05,41.04,80.06,-0.288,0.2772
-9.37040e-05,41.04,80.06,-0.288,0.27
-9.37000e-05,40.84,80.06,-0.288,0.2772
-9.36960e-05,40.84,80.06,-0.2752,0.2772
-9.36920e-05,41.04,80.46,-0.288,0.2772
-9.36880e-05,40.44,80.06,-0.2752,0.27
-9.36840e-05,41.04,80.06,-0.3008,0.2772
-9.36800e-05,40.84,79.66,-0.3008,0.2736
-9.36760e-05,40.64,80.06,-0.288,0.2736
-9.36720e-05,40.84,80.06,-0.288,0.2772
-9.36680e-05,40.84,80.06,-0.3136,0.27
-9.36640e-05,40.44,80.06,-0.2752,0.2736
-9.36600e-05,41.04,80.06,-0.3008,0.2808
-9.36560e-05,40.84,79.66,-0.288,0.2736
-9.36520e-05,40.84,80.46,-0.288,0.2772
-9.36480e-05,40.64,80.06,-0.3008,0.2736
-9.36440e-05,41.04,80.06,-0.3136,0.2772
-9.36400e-05,40.44,80.46,-0.2752,0.2772
-9.36360e-05,40.84,80.06,-0.3008,0.2772
-9.36320e-05,40.84,79.66,-0.2752,0.2736
-9.36280e-05,40.64,79.66,-0.288,0.2772
-9.36240e-05,40.84,80.06,-0.288,0.2772
-9.36200e-05,41.04,79.66,-0.3008,0.2772
-9.36160e-05,40.64,80.06,-0.288,0.2772
-9.36120e-05,41.04,79.66,-0.288,0.2736
-9.36080e-05,40.84,80.46,-0.3008,0.2736
-9.36040e-05,41.04,80.06,-0.3008,0.2736
-9.36000e-05,40.84,80.06,-0.3008,0.2772
-9.35960e-05,40.64,80.46,-0.3008,0.2736
-9.35920e-05,40.84,80.46,-0.3008,0.2772
-9.35880e-05,40.64,80.46,-0.2752,0.2808
-9.35840e-05,41.04,80.06,-0.288,0.2772
-9.35800e-05,41.24,80.06,-0.288,0.2736
-9.35760e-05,40.84,80.46,-0.3008,0.2736
-9.35720e-05,41.24,80.06,-0.288,0.2772
-9.35680e-05,40.44,79.66,-0.288,0.2736
-9.35640e-05,40.44,80.46,-0.288,0.2736
-9.35600e-05,40.84,80.06,-0.288,0.27
-9.35560e-05,40.64,80.46,-0.3008,0.2736
-9.35520e-05,40.64,80.06,-0.288,0.2736
-9.35480e-05,40.84,80.46,-0.2752,0.2772
-9.35440e-05,40.84,80.06,-0.2752,0.2736
-9.35400e-05,40.84,78.86,-0.2752,0.2772
-9.35360e-05,40.84,80.06,-0.3008,0.2808
-9.35320e-05,40.84,80.06,-0.3008,0.27
-9.35280e-05,41.04,80.06,-0.3008,0.2772
-9.35240e-05,40.64,80.06,-0.288,0.2808
-9.35200e-05,40.64,80.06,-0.288,0.27
-9.35160e-05,41.24,80.06,-0.3008,0.2736
-9.35120e-05,40.84,79.66,-0.3008,0.2736
-9.35080e-05,41.04,80.06,-0.288,0.2772
-9.35040e-05,40.64,80.06,-0.2624,0.2772
-9.35000e-05,40.84,80.46,-0.288,0.2736
-9.34960e-05,40.64,80.46,-0.288,0.2772
-9.34920e-05,41.04,79.66,-0.3008,0.2736
-9.34880e-05,40.64,80.06,-0.3008,0.2772
-9.34840e-05,40.84,80.06,-0.288,0.2736
-9.34800e-05,41.04,80.46,-0.3008,0.2736
-9.34760e-05,40.84,80.86,-0.288,0.2736
-9.34720e-05,40.84,80.06,-0.288,0.2736
-9.34680e-05,40.64,80.06,-0.3008,0.2772
-9.34640e-05,41.04,80.06,-0.3008,0.2772
-9.34600e-05,40.84,80.06,-0.2752,0.2772
-9.34560e-05,40.84,80.46,-0.288,0.2772
-9.34520e-05,40.64,80.06,-0.2752,0.2736
-9.34480e-05,40.84,80.06,-0.3136,0.2736
-9.34440e-05,40.84,80.46,-0.288,0.2736
-9.34400e-05,40.64,80.06,-0.3008,0.2736
-9.34360e-05,41.04,80.46,-0.288,0.2772
-9.34320e-05,40.44,80.06,-0.3008,0.2772
-9.34280e-05,40.64,80.06,-0.3008,0.2772
-9.34240e-05,41.04,80.06,-0.288,0.2772
-9.34200e-05,40.84,80.06,-0.288,0.2736
-9.34160e-05,40.84,80.06,-0.288,0.2736
-9.34120e-05,40.84,80.06,-0.2752,0.2772
-9.34080e-05,41.04,80.06,-0.3008,0.2772
-9.34040e-05,40.84,80.06,-0.2752,0.2772
-9.34000e-05,40.84,80.06,-0.288,0.27
-9.33960e-05,40.84,80.06,-0.3008,0.2736
-9.33920e-05,41.04,80.46,-0.3008,0.2736
-9.33880e-05,40.64,80.06,-0.3008,0.27
-9.33840e-05,40.84,79.66,-0.2752,0.2736
-9.33800e-05,41.44,79.26,-0.288,0.27
-9.33760e-05,40.44,79.66,-0.288,0.27
-9.33720e-05,40.84,80.06,-0.2624,0.2736
-9.33680e-05,40.64,80.46,-0.2752,0.2736
-9.33640e-05,41.04,80.06,-0.288,0.2736
-9.33600e-05,40.84,80.46,-0.288,0.2772
-9.33560e-05,40.64,80.46,-0.288,0.2808
-9.33520e-05,40.84,80.06,-0.2752,0.2736
-9.33480e-05,40.84,80.06,-0.2752,0.2736
-9.33440e-05,40.24,80.06,-0.2752,0.2736
-9.33400e-05,40.64,80.06,-0.288,0.2772
-9.33360e-05,40.64,80.06,-0.3136,0.2736
-9.33320e-05,41.04,80.06,-0.2752,0.2772
-9.33280e-05,41.04,80.06,-0.3008,0.2772
-9.33240e-05,40.64,80.06,-0.288,0.2736
-9.33200e-05,40.84,80.06,-0.288,0.2772
-9.33160e-05,40.84,80.06,-0.288,0.2736
-9.33120e-05,40.84,80.46,-0.3008,0.2772
-9.33080e-05,40.44,79.66,-0.2752,0.2772
-9.33040e-05,40.44,79.66,-0.288,0.2772
-9.33000e-05,40.84,80.06,-0.288,0.2772
-9.32960e-05,40.84,80.46,-0.2752,0.2772
-9.32920e-05,40.84,80.06,-0.3008,0.2772
-9.32880e-05,40.84,80.06,-0.2752,0.2736
-9.32840e-05,41.04,80.46,-0.288,0.2772
-9.32800e-05,41.04,80.06,-0.288,0.2736
-9.32760e-05,41.04,80.86,-0.3008,0.2736
-9.32720e-05,40.84,80.46,-0.288,0.2736
-9.32680e-05,41.04,80.06,-0.288,0.2772
-9.32640e-05,40.84,80.46,-0.3008,0.2772
-9.32600e-05,40.84,79.66,-0.2752,0.2772
-9.32560e-05,40.64,80.46,-0.3008,0.2772
-9.32520e-05,40.84,80.46,-0.3008,0.2736
-9.32480e-05,40.44,80.06,-0.2624,0.2736
-9.32440e-05,40.84,80.06,-0.3008,0.2772
-9.32400e-05,41.24,80.06,-0.3008,0.2736
-9.32360e-05,40.84,79.66,-0.3008,0.2772
-9.32320e-05,40.84,80.06,-0.288,0.27
-9.32280e-05,40.84,80.46,-0.288,0.2772
-9.32240e-05,40.84,80.06,-0.3008,0.2736
-9.32200e-05,40.84,79.66,-0.3008,0.2772
-9.32160e-05,40.64,80.06,-0.288,0.2772
-9.32120e-05,40.84,80.46,-0.2752,0.2772
-9.32080e-05,41.04,80.86,-0.3008,0.2772
-9.32040e-05,40.44,80.06,-0.288,0.2808
-9.32000e-05,40.44,79.66,-0.288,0.2736
-9.31960e-05,41.24,80.06,-0.2752,0.2736
-9.31920e-05,40.84,80.06,-0.3008,0.2736
-9.31880e-05,40.44,79.26,-0.2752,0.2736
-9.31840e-05,41.24,80.06,-0.2752,0.2772
-9.31800e-05,41.04,79.66,-0.3008,0.2736
-9.31760e-05,40.84,79.66,-0.3008,0.2772
-9.31720e-05,40.44,80.46,-0.3008,0.2772
-9.31680e-05,40.84,80.06,-0.288,0.2808
-9.31640e-05,40.84,80.06,-0.3136,0.2736
-9.31600e-05,40.64,80.06,-0.288,0.2736
-9.31560e-05,41.04,80.06,-0.288,0.2736
-9.31520e-05,40.84,80.06,-0.3008,0.2772
-9.31480e-05,40.84,80.06,-0.3008,0.2736
-9.31440e-05,40.44,80.06,-0.3008,0.2772
-9.31400e-05,40.84,80.06,-0.3008,0.2808
-9.31360e-05,40.84,80.06,-0.3008,0.2772
-9.31320e-05,40.84,80.06,-0.3008,0.2736
-9.31280e-05,40.64,79.26,-0.288,0.2772
-9.31240e-05,41.04,80.06,-0.288,0.2772
-9.31200e-05,41.24,80.46,-0.288,0.2772
-9.31160e-05,41.24,80.46,-0.3008,0.2772
-9.31120e-05,40.44,80.06,-0.288,0.2736
-9.31080e-05,41.04,80.06,-0.3008,0.2772
-9.31040e-05,40.64,80.06,-0.3008,0.2736
-9.31000e-05,40.44,80.46,-0.288,0.2736
-9.30960e-05,40.84,80.06,-0.288,0.2808
-9.30920e-05,40.64,80.06,-0.3008,0.2808
-9.30880e-05,40.84,80.46,-0.288,0.2772
-9.30840e-05,41.04,80.06,-0.288,0.2736
-9.30800e-05,40.44,80.06,-0.3008,0.2772
-9.30760e-05,40.84,80.06,-0.2752,0.2736
-9.30720e-05,40.64,80.06,-0.2752,0.2736
-9.30680e-05,40.64,80.06,-0.288,0.2772
-9.30640e-05,41.24,79.66,-0.3008,0.2772
-9.30600e-05,40.84,80.86,-0.3008,0.2772
-9.30560e-05,40.84,80.46,-0.3008,0.2772
-9.30520e-05,41.04,80.86,-0.288,0.2736
-9.30480e-05,40.84,80.06,-0.3008,0.2772
-9.30440e-05,41.04,80.46,-0.3008,0.2772
-9.30400e-05,41.04,80.06,-0.2624,0.2736
-9.30360e-05,41.04,80.46,-0.288,0.2808
-9.30320e-05,40.84,80.06,-0.288,0.2772
-9.30280e-05,41.24,80.46,-0.288,0.2772
-9.30240e-05,40.84,80.06,-0.288,0.2772
-9.30200e-05,41.04,79.26,-0.288,0.2772
-9.30160e-05,40.84,80.46,-0.3008,0.2772
-9.30120e-05,40.84,79.66,-0.2752,0.2736
-9.30080e-05,40.84,79.66,-0.3136,0.2772
-9.30040e-05,40.64,80.46,-0.2752,0.2772
-9.30000e-05,40.64,80.06,-0.288,0.2772
-9.29960e-05,40.64,80.46,-0.288,0.2808
-9.29920e-05,40.64,80.06,-0.3008,0.2772
-9.29880e-05,40.84,80.06,-0.288,0.2808
-9.29840e-05,40.64,80.06,-0.288,0.2736
-9.29800e-05,40.84,80.46,-0.288,0.2772
-9.29760e-05,40.84,80.06,-0.288,0.2736
-9.29720e-05,40.84,80.46,-0.288,0.27
-9.29680e-05,41.24,80.06,-0.2752,0.2808
-9.29640e-05,40.44,80.46,-0.3008,0.27
-9.29600e-05,40.84,80.06,-0.288,0.2772
-9.29560e-05,41.04,80.06,-0.288,0.2736
-9.29520e-05,40.84,79.66,-0.288,0.2772
-9.29480e-05,40.44,80.06,-0.2752,0.2736
-9.29440e-05,40.84,80.06,-0.288,0.2736
-9.29400e-05,40.84,80.06,-0.288,0.27
-9.29360e-05,41.64,80.06,-0.288,0.2772
-9.29320e-05,41.04,80.06,-0.2752,0.2736
-9.29280e-05,40.84,80.06,-0.3008,0.2772
-9.29240e-05,41.24,80.46,-0.3008,0.2808
-9.29200e-05,40.84,80.06,-0.3008,0.2772
-9.29160e-05,40.44,80.06,-0.3008,0.2736
-9.29120e-05,40.84,80.06,-0.3008,0.2772
-9.29080e-05,41.04,80.06,-0.288,0.2736
-9.29040e-05,40.84,80.86,-0.3008,0.2808
-9.29000e-05,40.84,79.66,-0.288,0.2772
-9.28960e-05,40.84,80.06,-0.288,0.2772
-9.28920e-05,40.84,80.06,-0.3008,0.2736
-9.28880e-05,40.44,80.06,-0.2752,0.2736
-9.28840e-05,41.04,80.06,-0.2752,0.2736
-9.28800e-05,40.64,80.06,-0.288,0.2772
-9.28760e-05,41.24,80.06,-0.3008,0.2736
-9.28720e-05,41.04,80.06,-0.288,0.2736
-9.28680e-05,40.84,80.06,-0.288,0.2736
-9.28640e-05,40.44,80.06,-0.288,0.2772
-9.28600e-05,41.04,80.06,-0.288,0.2772
-9.28560e-05,40.84,80.46,-0.288,0.27
-9.28520e-05,40.84,80.46,-0.3008,0.2772
-9.28480e-05,41.04,80.06,-0.288,0.2772
-9.28440e-05,41.04,79.66,-0.3008,0.2772
-9.28400e-05,41.04,80.06,-0.3008,0.2736
-9.28360e-05,40.84,80.06,-0.3008,0.27
-9.28320e-05,40.64,80.06,-0.288,0.2736
-9.28280e-05,41.04,79.66,-0.288,0.2736
-9.28240e-05,40.84,80.06,-0.3008,0.2772
-9.28200e-05,40.84,80.06,-0.288,0.2736
-9.28160e-05,40.44,80.46,-0.2752,0.2772
-9.28120e-05,40.44,80.06,-0.3008,0.2772
-9.28080e-05,40.64,80.46,-0.3008,0.2772
-9.28040e-05,40.64,80.06,-0.288,0.2772
-9.28000e-05,41.04,80.86,-0.288,0.2772
-9.27960e-05,40.84,80.06,-0.288,0.2736
-9.27920e-05,40.84,80.46,-0.3008,0.2772
-9.27880e-05,40.44,80.06,-0.3008,0.2736
-9.27840e-05,40.64,80.06,-0.288,0.27
-9.27800e-05,41.04,80.06,-0.3008,0.2736
-9.27760e-05,41.04,80.06,-0.2624,0.2772
-9.27720e-05,40.44,80.06,-0.288,0.2736
-9.27680e-05,41.04,80.06,-0.3008,0.2772
-9.27640e-05,40.64,79.66,-0.3008,0.2736
-9.27600e-05,40.84,80.06,-0.288,0.2772
-9.27560e-05,40.84,81.26,-0.288,0.2736
-9.27520e-05,40.64,80.06,-0.288,0.2808
-9.27480e-05,41.04,79.66,-0.288,0.2772
-9.27440e-05,41.04,80.46,-0.288,0.2736
-9.27400e-05,41.24,80.06,-0.3008,0.2772
-9.27360e-05,40.84,80.86,-0.288,0.2772
-9.27320e-05,40.84,80.06,-0.2752,0.2772
-9.27280e-05,40.84,80.06,-0.288,0.2736
-9.27240e-05,40.64,79.66,-0.3008,0.2736
-9.27200e-05,40.84,80.06,-0.288,0.2772
-9.27160e-05,40.64,79.66,-0.3008,0.27
-9.27120e-05,40.64,80.06,-0.288,0.2772
-9.27080e-05,40.44,80.06,-0.3008,0.2772
-9.27040e-05,40.44,80.46,-0.3008,0.2736
-9.27000e-05,40.44,79.66,-0.3008,0.2772
-9.26960e-05,40.84,80.46,-0.2752,0.2772
-9.26920e-05,40.84,80.46,-0.288,0.2772
-9.26880e-05,40.44,80.06,-0.3008,0.2736
-9.26840e-05,40.84,80.46,-0.288,0.2808
-9.26800e-05,40.84,80.46,-0.3008,0.2772
-9.26760e-05,41.04,80.06,-0.288,0.2736
-9.26720e-05,40.84,80.46,-0.2752,0.2772
-9.26680e-05,40.84,80.86,-0.288,0.2772
-9.26640e-05,40.84,80.06,-0.3008,0.2772
-9.26600e-05,40.84,80.46,-0.2752,0.2736
-9.26560e-05,41.04,80.06,-0.288,0.2808
-9.26520e-05,40.64,80.06,-0.2752,0.2772
-9.26480e-05,40.64,79.66,-0.2624,0.2772
-9.26440e-05,40.84,80.06,-0.3008,0.2772
-9.26400e-05,40.44,80.06,-0.2752,0.2808
-9.26360e-05,41.04,80.06,-0.3008,0.2772
-9.26320e-05,40.84,80.46,-0.288,0.2772
-9.26280e-05,41.04,80.46,-0.288,0.2736
-9.26240e-05,40.84,80.06,-0.288,0.2772
-9.26200e-05,41.04,79.66,-0.288,0.2808
-9.26160e-05,41.04,80.46,-0.3008,0.27
-9.26120e-05,40.64,80.06,-0.3008,0.2772
-9.26080e-05,40.64,80.06,-0.288,0.2736
-9.26040e-05,40.64,80.06,-0.2752,0.2772
-9.26000e-05,40.84,80.46,-0.288,0.2736
-9.25960e-05,41.04,80.06,-0.288,0.2772
-9.25920e-05,40.64,80.46,-0.3008,0.2808
-9.25880e-05,41.04,80.46,-0.2752,0.27
-9.25840e-05,40.84,80.06,-0.3136,0.2772
-9.25800e-05,40.84,80.46,-0.288,0.2772
-9.25760e-05,40.84,80.06,-0.2752,0.27
-9.25720e-05,40.24,79.66,-0.288,0.2772
-9.25680e-05,40.64,80.46,-0.288,0.2772
-9.25640e-05,40.84,80.06,-0.288,0.2772
-9.25600e-05,40.44,80.46,-0.288,0.27
-9.25560e-05,40.84,80.46,-0.2752,0.2808
-9.25520e-05,40.44,80.06,-0.288,0.2772
-9.25480e-05,40.84,80.06,-0.3008,0.2772
-9.25440e-05,40.84,80.06,-0.3008,0.2772
-9.25400e-05,41.24,80.06,-0.288,0.2772
-9.25360e-05,40.64,80.46,-0.288,0.2808
-9.25320e-05,40.84,80.06,-0.3136,0.2736
-9.25280e-05,40.64,80.06,-0.288,0.27
-9.25240e-05,40.44,80.06,-0.3008,0.2772
-9.25200e-05,40.84,80.46,-0.3008,0.27
-9.25160e-05,40.84,80.46,-0.3008,0.2772
-9.25120e-05,40.64,80.46,-0.3008,0.2772
-9.25080e-05,41.04,79.66,-0.288,0.2736
-9.25040e-05,41.04,80.06,-0.2752,0.2772
-9.25000e-05,41.04,80.86,-0.3008,0.2736
-9.24960e-05,41.04,80.06,-0.2752,0.2772
-9.24920e-05,41.04,80.06,-0.3008,0.2736
-9.24880e-05,40.64,80.06,-0.2624,0.2772
-9.24840e-05,41.24,80.06,-0.2752,0.2772
-9.24800e-05,40.84,80.46,-0.288,0.2736
-9.24760e-05,41.04,79.66,-0.2752,0.27
-9.24720e-05,40.24,80.46,-0.288,0.2772
-9.24680e-05,40.84,80.06,-0.3136,0.27
-9.24640e-05,40.64,80.06,-0.2752,0.2772
-9.24600e-05,40.84,80.46,-0.288,0.2772
-9.24560e-05,40.64,80.06,-0.288,0.2772
-9.24520e-05,41.04,80.06,-0.288,0.2736
-9.24480e-05,40.84,80.06,-0.288,0.2736
-9.24440e-05,41.04,80.06,-0.288,0.2736
-9.24400e-05,40.64,79.66,-0.288,0.2736
-9.24360e-05,40.44,80.06,-0.3008,0.2736
-9.24320e-05,40.64,80.06,-0.3008,0.2808
-9.24280e-05,40.84,80.06,-0.2752,0.2736
-9.24240e-05,40.64,80.06,-0.3008,0.2772
-9.24200e-05,40.84,80.46,-0.3008,0.27
-9.24160e-05,41.04,79.66,-0.2752,0.2808
-9.24120e-05,40.84,80.06,-0.288,0.2736
