data/Flavio/Faults_d20_FPP_IDC-20250701T175717Z-1-001/Faults_d20_FPP_IDC/tek0414.csv

Model,MSO4054
Firmware Version,2.48

Point Format,Y,,,
Horizontal Units,S,,,
Horizontal Scale,4e-05,,,
Sample Interval,4e-09,,,
Record Length,100000,,,
Gating,0.0% to 100.0%,0.0% to 100.0%,0.0% to 100.0%,0.0% to 100.0%
Probe Attenuation,50,50,1,1
Vertical Units,V,V,A,A
Vertical Offset,-0.16,0.06,0,0
Vertical Scale,5,10,0.1,0.3
Label,VPPR,VPPL,IPR,IPL
TIME,CH1,CH2,CH3,CH4
-2.26400e-04,40.84,79.66,-0.284,0.276
-2.26396e-04,41.04,80.46,-0.28,0.276
-2.26392e-04,40.64,80.46,-0.28,0.288
-2.26388e-04,41.04,80.06,-0.28,0.288
-2.26384e-04,40.84,79.26,-0.28,0.264
-2.26380e-04,40.84,80.46,-0.288,0.264
-2.26376e-04,41.04,80.06,-0.284,0.288
-2.26372e-04,40.64,80.06,-0.276,0.276
-2.26368e-04,40.84,79.66,-0.28,0.264
-2.26364e-04,41.04,80.06,-0.28,0.276
-2.26360e-04,40.64,79.66,-0.284,0.276
-2.26356e-04,40.84,79.66,-0.288,0.264
-2.26352e-04,41.04,80.06,-0.28,0.288
-2.26348e-04,40.44,79.66,-0.288,0.276
-2.26344e-04,41.04,80.06,-0.284,0.276
-2.26340e-04,40.64,79.66,-0.268,0.264
-2.26336e-04,40.64,80.46,-0.28,0.276
-2.26332e-04,40.64,80.46,-0.288,0.288
-2.26328e-04,40.84,79.66,-0.28,0.3
-2.26324e-04,40.84,80.06,-0.284,0.276
-2.26320e-04,41.04,80.06,-0.28,0.276
-2.26316e-04,40.64,80.06,-0.28,0.288
-2.26312e-04,40.64,80.46,-0.276,0.3
-2.26308e-04,41.04,80.06,-0.296,0.252
-2.26304e-04,41.04,80.06,-0.288,0.288
-2.26300e-04,40.64,80.46,-0.284,0.276
-2.26296e-04,41.04,80.06,-0.292,0.288
-2.26292e-04,41.04,80.06,-0.284,0.276
-2.26288e-04,40.84,80.46,-0.284,0.288
-2.26284e-04,41.04,80.46,-0.28,0.288
-2.26280e-04,40.64,79.66,-0.28,0.276
-2.26276e-04,40.44,80.86,-0.284,0.276
-2.26272e-04,41.24,80.06,-0.284,0.288
-2.26268e-04,40.64,80.06,-0.284,0.288
-2.26264e-04,40.84,80.06,-0.28,0.288
-2.26260e-04,40.84,79.66,-0.276,0.276
-2.26256e-04,40.84,80.46,-0.28,0.276
-2.26252e-04,40.84,79.66,-0.28,0.276
-2.26248e-04,40.84,79.66,-0.276,0.276
-2.26244e-04,40.84,80.06,-0.28,0.276
-2.26240e-04,40.64,80.06,-0.28,0.288
-2.26236e-04,40.84,79.66,-0.284,0.288
-2.26232e-04,40.64,80.06,-0.284,0.288
-2.26228e-04,40.24,80.46,-0.276,0.276
-2.26224e-04,40.64,80.06,-0.28,0.276
-2.26220e-04,40.84,79.66,-0.284,0.276
-2.26216e-04,40.24,80.46,-0.28,0.24
-2.26212e-04,40.64,80.06,-0.288,0.276
-2.26208e-04,40.64,80.06,-0.276,0.264
-2.26204e-04,40.84,80.06,-0.28,0.276
-2.26200e-04,41.24,80.06,-0.28,0.264
-2.26196e-04,40.64,80.06,-0.284,0.276
-2.26192e-04,41.04,80.06,-0.276,0.276
-2.26188e-04,40.44,80.06,-0.28,0.276
-2.26184e-04,40.84,80.06,-0.284,0.276
-2.26180e-04,40.64,80.06,-0.276,0.264
-2.26176e-04,40.24,79.26,-0.28,0.264
-2.26172e-04,40.44,80.46,-0.284,0.264
-2.26168e-04,41.04,80.06,-0.28,0.276
-2.26164e-04,40.84,80.06,-0.284,0.276
-2.26160e-04,41.04,80.06,-0.284,0.276
-2.26156e-04,40.64,79.66,-0.284,0.264
-2.26152e-04,40.64,80.06,-0.284,0.276
-2.26148e-04,40.44,79.66,-0.28,0.276
-2.26144e-04,41.24,80.06,-0.272,0.276
-2.26140e-04,40.84,79.66,-0.284,0.276
-2.26136e-04,40.64,80.06,-0.276,0.264
-2.26132e-04,40.84,80.06,-0.284,0.264
-2.26128e-04,40.84,80.06,-0.284,0.276
-2.26124e-04,40.84,80.06,-0.28,0.288
-2.26120e-04,40.64,80.86,-0.284,0.288
-2.26116e-04,40.84,80.06,-0.288,0.252
-2.26112e-04,40.44,80.06,-0.28,0.276
-2.26108e-04,40.64,79.66,-0.284,0.276
-2.26104e-04,40.84,79.66,-0.284,0.288
-2.26100e-04,40.64,80.06,-0.28,0.264
-2.26096e-04,40.84,80.06,-0.276,0.276
-2.26092e-04,40.64,80.06,-0.28,0.288
-2.26088e-04,40.64,80.06,-0.288,0.264
-2.26084e-04,41.04,80.46,-0.28,0.264
-2.26080e-04,40.64,80.06,-0.28,0.276
-2.26076e-04,41.04,80.86,-0.28,0.288
-2.26072e-04,40.84,80.06,-0.28,0.288
-2.26068e-04,40.44,80.46,-0.284,0.276
-2.26064e-04,41.04,80.06,-0.28,0.288
-2.26060e-04,40.84,80.06,-0.28,0.252
-2.26056e-04,40.84,80.06,-0.28,0.288
-2.26052e-04,40.64,80.06,-0.284,0.276
-2.26048e-04,40.84,80.46,-0.284,0.288
-2.26044e-04,40.84,80.06,-0.28,0.288
-2.26040e-04,40.84,80.06,-0.28,0.276
-2.26036e-04,40.44,80.06,-0.284,0.264
-2.26032e-04,41.24,79.66,-0.276,0.264
-2.26028e-04,40.44,80.06,-0.288,0.288
-2.26024e-04,41.04,80.06,-0.288,0.276
-2.26020e-04,40.24,79.66,-0.28,0.276
-2.26016e-04,40.44,79.66,-0.284,0.276
-2.26012e-04,40.84,80.06,-0.28,0.288
-2.26008e-04,41.04,80.06,-0.28,0.288
-2.26004e-04,40.84,80.06,-0.276,0.276
-2.26000e-04,40.84,80.06,-0.28,0.276
-2.25996e-04,40.44,80.06,-0.28,0.276
-2.25992e-04,40.84,80.06,-0.28,0.264
-2.25988e-04,40.84,80.06,-0.284,0.276
-2.25984e-04,40.84,80.06,-0.28,0.264
-2.25980e-04,40.44,80.46,-0.288,0.276
-2.25976e-04,40.84,80.06,-0.28,0.276
-2.25972e-04,40.64,80.06,-0.284,0.276
-2.25968e-04,40.64,80.06,-0.276,0.288
-2.25964e-04,40.84,80.06,-0.276,0.276
-2.25960e-04,41.04,80.06,-0.292,0.276
-2.25956e-04,41.04,80.46,-0.292,0.276
-2.25952e-04,40.84,80.06,-0.28,0.264
-2.25948e-04,40.84,80.06,-0.28,0.276
-2.25944e-04,40.64,80.06,-0.28,0.288
-2.25940e-04,40.64,80.06,-0.28,0.276
-2.25936e-04,40.84,80.46,-0.276,0.276
-2.25932e-04,40.64,80.06,-0.288,0.264
-2.25928e-04,40.84,80.86,-0.276,0.288
-2.25924e-04,40.84,80.06,-0.28,0.276
-2.25920e-04,40.64,80.06,-0.28,0.276
-2.25916e-04,40.64,80.06,-0.284,0.264
-2.25912e-04,40.64,79.66,-0.28,0.288
-2.25908e-04,40.84,79.66,-0.284,0.288
-2.25904e-04,41.04,80.06,-0.288,0.276
-2.25900e-04,41.24,79.66,-0.288,0.276
-2.25896e-04,41.04,80.06,-0.28,0.276
-2.25892e-04,40.84,80.06,-0.288,0.276
-2.25888e-04,40.84,80.06,-0.28,0.276
-2.25884e-04,40.64,79.66,-0.28,0.276
-2.25880e-04,41.04,80.46,-0.276,0.276
-2.25876e-04,41.04,80.06,-0.28,0.276
-2.25872e-04,40.84,79.66,-0.284,0.276
-2.25868e-04,40.84,80.46,-0.284,0.276
-2.25864e-04,40.84,80.46,-0.276,0.276
-2.25860e-04,41.04,80.46,-0.276,0.276
-2.25856e-04,40.84,79.66,-0.284,0.264
-2.25852e-04,41.24,80.06,-0.284,0.264
-2.25848e-04,40.84,79.66,-0.284,0.276
-2.25844e-04,40.64,80.06,-0.276,0.264
-2.25840e-04,40.64,80.06,-0.28,0.264
-2.25836e-04,40.84,80.06,-0.284,0.276
-2.25832e-04,40.44,79.66,-0.276,0.264
-2.25828e-04,40.84,79.26,-0.284,0.288
-2.25824e-04,41.04,79.66,-0.28,0.252
-2.25820e-04,40.64,79.66,-0.284,0.276
-2.25816e-04,40.84,80.06,-0.284,0.276
-2.25812e-04,40.64,79.66,-0.276,0.288
-2.25808e-04,40.84,80.06,-0.28,0.264
-2.25804e-04,40.64,80.06,-0.284,0.276
-2.25800e-04,40.84,80.06,-0.284,0.264
-2.25796e-04,40.44,80.06,-0.288,0.276
-2.25792e-04,40.84,80.06,-0.28,0.264
-2.25788e-04,40.64,80.06,-0.276,0.276
-2.25784e-04,41.04,79.66,-0.28,0.288
-2.25780e-04,40.84,80.06,-0.284,0.288
-2.25776e-04,40.84,80.06,-0.288,0.288
-2.25772e-04,40.84,80.06,-0.284,0.264
-2.25768e-04,40.44,80.06,-0.284,0.264
-2.25764e-04,40.64,79.66,-0.28,0.276
-2.25760e-04,40.84,80.86,-0.284,0.288
-2.25756e-04,40.64,80.06,-0.28,0.288
-2.25752e-04,40.44,80.06,-0.284,0.264
-2.25748e-04,40.84,79.66,-0.284,0.264
-2.25744e-04,40.44,79.66,-0.288,0.264
-2.25740e-04,40.64,80.46,-0.28,0.276
-2.25736e-04,40.84,80.06,-0.284,0.288
-2.25732e-04,40.64,80.06,-0.284,0.276
-2.25728e-04,40.64,79.66,-0.284,0.288
-2.25724e-04,40.64,80.06,-0.28,0.288
-2.25720e-04,40.84,80.06,-0.284,0.276
-2.25716e-04,40.44,79.66,-0.284,0.276
-2.25712e-04,40.44,80.06,-0.284,0.288
-2.25708e-04,41.04,80.06,-0.288,0.288
-2.25704e-04,40.64,80.06,-0.276,0.276
-2.25700e-04,40.64,79.66,-0.276,0.276
-2.25696e-04,40.84,79.66,-0.28,0.288
-2.25692e-04,40.44,80.06,-0.28,0.276
-2.25688e-04,40.64,80.46,-0.284,0.264
-2.25684e-04,41.04,80.06,-0.288,0.276
-2.25680e-04,40.44,80.06,-0.276,0.276
-2.25676e-04,41.04,80.06,-0.28,0.288
-2.25672e-04,41.44,80.06,-0.28,0.276
-2.25668e-04,40.44,80.06,-0.288,0.288
-2.25664e-04,40.64,80.46,-0.28,0.264
-2.25660e-04,41.04,79.26,-0.28,0.276
-2.25656e-04,40.64,80.06,-0.284,0.276
-2.25652e-04,40.64,79.66,-0.28,0.288
-2.25648e-04,40.84,80.06,-0.276,0.276
-2.25644e-04,40.64,80.06,-0.276,0.3
-2.25640e-04,40.64,80.06,-0.292,0.288
-2.25636e-04,40.64,80.06,-0.284,0.276
-2.25632e-04,40.64,80.06,-0.284,0.276
-2.25628e-04,40.84,80.06,-0.276,0.276
-2.25624e-04,40.44,80.06,-0.28,0.276
-2.25620e-04,41.24,80.06,-0.284,0.288
-2.25616e-04,41.04,79.66,-0.272,0.276
-2.25612e-04,40.64,80.06,-0.288,0.276
-2.25608e-04,40.64,80.46,-0.284,0.276
-2.25604e-04,41.04,80.06,-0.276,0.276
-2.25600e-04,41.24,80.06,-0.28,0.276
-2.25596e-04,40.64,80.06,-0.284,0.276
-2.25592e-04,40.64,80.06,-0.276,0.3
-2.25588e-04,41.04,80.46,-0.28,0.276
-2.25584e-04,41.04,80.06,-0.284,0.276
-2.25580e-04,40.84,80.46,-0.284,0.288
-2.25576e-04,41.04,79.66,-0.288,0.288
-2.25572e-04,41.04,79.66,-0.28,0.288
-2.25568e-04,40.84,80.46,-0.276,0.288
-2.25564e-04,41.04,80.46,-0.28,0.276
-2.25560e-04,40.84,79.66,-0.28,0.276
-2.25556e-04,40.84,80.46,-0.28,0.3
-2.25552e-04,40.44,79.66,-0.284,0.276
-2.25548e-04,41.24,80.06,-0.28,0.276
-2.25544e-04,40.84,80.46,-0.284,0.276
-2.25540e-04,40.84,80.86,-0.28,0.276
-2.25536e-04,41.04,80.06,-0.284,0.276
-2.25532e-04,40.24,79.66,-0.28,0.288
-2.25528e-04,40.84,79.66,-0.284,0.264
-2.25524e-04,40.64,80.06,-0.284,0.288
-2.25520e-04,40.64,80.06,-0.284,0.276
-2.25516e-04,40.84,80.46,-0.284,0.276
-2.25512e-04,40.84,80.06,-0.288,0.276
-2.25508e-04,41.04,80.06,-0.284,0.276
-2.25504e-04,40.84,80.46,-0.28,0.288
-2.25500e-04,40.64,80.06,-0.284,0.276
-2.25496e-04,40.64,80.86,-0.288,0.264
-2.25492e-04,40.84,79.66,-0.28,0.276
-2.25488e-04,40.84,80.06,-0.276,0.276
-2.25484e-04,41.04,80.06,-0.28,0.264
-2.25480e-04,40.84,80.46,-0.28,0.276
-2.25476e-04,41.04,80.06,-0.288,0.264
-2.25472e-04,40.84,80.06,-0.28,0.264
-2.25468e-04,41.04,79.66,-0.28,0.276
-2.25464e-04,40.84,80.46,-0.28,0.276
-2.25460e-04,40.64,80.06,-0.284,0.276
-2.25456e-04,40.44,80.06,-0.28,0.276
-2.25452e-04,40.44,80.46,-0.284,0.276
-2.25448e-04,40.64,80.06,-0.28,0.276
-2.25444e-04,40.84,79.66,-0.276,0.276
-2.25440e-04,41.04,79.66,-0.276,0.276
-2.25436e-04,40.84,79.66,-0.28,0.276
-2.25432e-04,41.04,80.06,-0.28,0.288
-2.25428e-04,40.64,79.66,-0.28,0.276
-2.25424e-04,40.44,80.06,-0.28,0.264
-2.25420e-04,40.84,80.46,-0.284,0.288
-2.25416e-04,41.04,80.06,-0.28,0.288
-2.25412e-04,40.84,80.06,-0.28,0.276
-2.25408e-04,40.84,80.46,-0.28,0.276
-2.25404e-04,40.64,80.46,-0.28,0.264
-2.25400e-04,40.64,79.66,-0.28,0.264
-2.25396e-04,40.44,79.26,-0.276,0.288
-2.25392e-04,40.64,80.06,-0.28,0.276
-2.25388e-04,40.84,79.26,-0.28,0.264
-2.25384e-04,40.84,80.46,-0.284,0.276
-2.25380e-04,41.04,79.66,-0.288,0.276
-2.25376e-04,41.04,80.46,-0.284,0.3
-2.25372e-04,41.04,80.06,-0.284,0.276
-2.25368e-04,40.44,80.06,-0.284,0.276
-2.25364e-04,40.64,80.06,-0.288,0.276
-2.25360e-04,40.84,80.06,-0.284,0.288
-2.25356e-04,40.44,80.06,-0.288,0.276
-2.25352e-04,40.44,80.06,-0.28,0.276
-2.25348e-04,40.84,79.66,-0.276,0.276
-2.25344e-04,41.04,80.06,-0.288,0.3
-2.25340e-04,41.04,80.06,-0.276,0.276
-2.25336e-04,41.04,80.46,-0.288,0.276
-2.25332e-04,41.04,80.46,-0.288,0.288
-2.25328e-04,40.64,80.06,-0.28,0.276
-2.25324e-04,40.44,80.06,-0.284,0.288
-2.25320e-04,40.64,80.06,-0.284,0.264
-2.25316e-04,40.84,79.66,-0.288,0.276
-2.25312e-04,41.04,79.66,-0.28,0.264
-2.25308e-04,40.64,80.46,-0.284,0.276
-2.25304e-04,40.84,80.06,-0.28,0.264
-2.25300e-04,40.44,79.66,-0.28,0.264
-2.25296e-04,40.84,80.06,-0.28,0.276
-2.25292e-04,40.64,79.66,-0.28,0.264
-2.25288e-04,41.04,80.06,-0.284,0.264
-2.25284e-04,40.84,80.06,-0.284,0.276
-2.25280e-04,40.84,79.26,-0.292,0.276
-2.25276e-04,40.84,80.46,-0.276,0.264
-2.25272e-04,40.84,80.06,-0.276,0.264
-2.25268e-04,41.04,80.06,-0.28,0.264
-2.25264e-04,41.24,80.06,-0.28,0.288
-2.25260e-04,40.84,80.06,-0.276,0.276
-2.25256e-04,41.04,80.46,-0.288,0.264
-2.25252e-04,40.84,79.66,-0.284,0.288
-2.25248e-04,40.64,80.06,-0.28,0.264
-2.25244e-04,40.84,80.06,-0.284,0.288
-2.25240e-04,41.04,80.06,-0.284,0.276
-2.25236e-04,40.44,80.06,-0.284,0.276
-2.25232e-04,40.64,80.06,-0.284,0.276
-2.25228e-04,40.64,80.46,-0.28,0.276
-2.25224e-04,41.04,80.06,-0.28,0.276
-2.25220e-04,40.64,80.06,-0.28,0.288
-2.25216e-04,40.44,80.06,-0.284,0.252
-2.25212e-04,41.24,80.06,-0.284,0.276
-2.25208e-04,40.84,80.06,-0.28,0.3
-2.25204e-04,40.84,79.66,-0.28,0.264
-2.25200e-04,40.84,80.06,-0.28,0.288
-2.25196e-04,40.44,80.06,-0.288,0.264
-2.25192e-04,41.04,79.66,-0.284,0.264
-2.25188e-04,40.64,79.66,-0.284,0.288
-2.25184e-04,41.44,80.86,-0.276,0.276
-2.25180e-04,40.84,79.66,-0.284,0.276
-2.25176e-04,41.04,79.66,-0.276,0.288
-2.25172e-04,40.64,80.06,-0.288,0.288
-2.25168e-04,41.04,79.66,-0.28,0.288
-2.25164e-04,40.84,80.06,-0.284,0.288
-2.25160e-04,40.64,79.66,-0.284,0.276
-2.25156e-04,40.84,80.06,-0.284,0.288
-2.25152e-04,40.84,80.06,-0.288,0.276
-2.25148e-04,40.64,80.06,-0.284,0.288
-2.25144e-04,40.64,80.06,-0.28,0.276
-2.25140e-04,41.04,79.66,-0.288,0.276
-2.25136e-04,40.84,79.66,-0.276,0.288
-2.25132e-04,40.64,80.06,-0.284,0.276
-2.25128e-04,41.04,80.06,-0.28,0.252
-2.25124e-04,40.84,80.46,-0.28,0.276
-2.25120e-04,40.84,80.06,-0.284,0.276
-2.25116e-04,41.04,79.66,-0.276,0.276
-2.25112e-04,41.04,80.06,-0.276,0.276
-2.25108e-04,40.64,80.06,-0.276,0.252
-2.25104e-04,40.84,80.06,-0.284,0.288
-2.25100e-04,40.84,80.06,-0.28,0.276
-2.25096e-04,41.04,80.06,-0.28,0.288
-2.25092e-04,41.24,79.26,-0.284,0.276
-2.25088e-04,41.04,80.06,-0.284,0.276
-2.25084e-04,40.84,80.06,-0.276,0.264
-2.25080e-04,41.24,80.06,-0.276,0.276
-2.25076e-04,41.04,80.06,-0.288,0.264
-2.25072e-04,41.04,80.06,-0.284,0.276
-2.25068e-04,40.84,79.66,-0.28,0.276
-2.25064e-04,40.44,80.06,-0.288,0.276
-2.25060e-04,40.84,80.46,-0.276,0.276
-2.25056e-04,40.64,79.66,-0.284,0.288
-2.25052e-04,40.84,80.06,-0.28,0.276
-2.25048e-04,41.04,80.06,-0.292,0.288
-2.25044e-04,40.84,80.06,-0.28,0.276
-2.25040e-04,41.04,80.86,-0.284,0.264
-2.25036e-04,40.84,80.06,-0.284,0.288
-2.25032e-04,41.04,79.66,-0.288,0.288
-2.25028e-04,40.84,80.06,-0.284,0.276
-2.25024e-04,40.64,80.46,-0.28,0.264
-2.25020e-04,40.84,80.46,-0.28,0.276
-2.25016e-04,41.04,80.46,-0.284,0.264
-2.25012e-04,41.04,80.06,-0.28,0.276
-2.25008e-04,41.04,80.06,-0.284,0.276
-2.25004e-04,40.44,80.06,-0.288,0.276
-2.25000e-04,40.64,80.06,-0.28,0.264
-2.24996e-04,41.04,80.06,-0.28,0.276
-2.24992e-04,40.44,79.66,-0.276,0.264
-2.24988e-04,40.84,80.06,-0.28,0.276
-2.24984e-04,41.04,80.06,-0.28,0.264
-2.24980e-04,40.44,80.06,-0.284,0.288
-2.24976e-04,40.44,80.06,-0.28,0.276
-2.24972e-04,40.64,80.06,-0.28,0.276
-2.24968e-04,40.84,80.06,-0.28,0.276
-2.24964e-04,40.64,79.66,-0.276,0.264
-2.24960e-04,41.44,79.66,-0.28,0.276
-2.24956e-04,41.04,80.46,-0.28,0.276
-2.24952e-04,40.84,80.46,-0.28,0.276
-2.24948e-04,41.04,80.06,-0.272,0.288
-2.24944e-04,41.04,79.66,-0.276,0.288
-2.24940e-04,40.44,80.06,-0.28,0.276
-2.24936e-04,41.04,80.06,-0.284,0.276
-2.24932e-04,40.84,79.66,-0.284,0.276
-2.24928e-04,41.24,80.06,-0.284,0.264
-2.24924e-04,40.84,79.66,-0.284,0.288
-2.24920e-04,40.84,80.06,-0.28,0.288
-2.24916e-04,40.84,80.06,-0.288,0.288
-2.24912e-04,40.84,80.06,-0.276,0.276
-2.24908e-04,40.84,80.06,-0.28,0.276
-2.24904e-04,40.84,80.46,-0.284,0.276
-2.24900e-04,40.64,80.06,-0.284,0.276
-2.24896e-04,40.84,80.06,-0.276,0.264
-2.24892e-04,41.24,80.06,-0.28,0.276
-2.24888e-04,41.04,80.06,-0.28,0.264
-2.24884e-04,40.84,80.46,-0.276,0.288
-2.24880e-04,40.84,80.46,-0.284,0.264
-2.24876e-04,40.84,80.06,-0.28,0.288
-2.24872e-04,40.64,80.06,-0.276,0.264
-2.24868e-04,40.64,80.06,-0.276,0.264
-2.24864e-04,40.64,80.06,-0.28,0.264
-2.24860e-04,41.24,80.06,-0.28,0.276
-2.24856e-04,40.64,79.66,-0.284,0.276
-2.24852e-04,40.84,80.06,-0.288,0.288
-2.24848e-04,40.64,80.46,-0.284,0.288
-2.24844e-04,40.64,80.06,-0.28,0.288
-2.24840e-04,41.04,80.06,-0.288,0.276
-2.24836e-04,41.04,79.66,-0.288,0.288
-2.24832e-04,40.84,80.06,-0.28,0.276
-2.24828e-04,40.84,80.06,-0.284,0.264
-2.24824e-04,41.04,80.06,-0.284,0.288
-2.24820e-04,40.64,80.06,-0.284,0.264
-2.24816e-04,40.84,80.06,-0.28,0.264
-2.24812e-04,40.64,80.06,-0.28,0.288
-2.24808e-04,40.64,80.06,-0.284,0.276
-2.24804e-04,41.04,79.26,-0.276,0.288
-2.24800e-04,40.84,80.06,-0.28,0.264
-2.24796e-04,41.04,80.06,-0.288,0.264
-2.24792e-04,41.04,79.66,-0.28,0.288
-2.24788e-04,41.04,80.06,-0.28,0.276
-2.24784e-04,40.64,80.46,-0.28,0.288
-2.24780e-04,40.84,80.06,-0.288,0.264
-2.24776e-04,40.64,80.06,-0.276,0.276
-2.24772e-04,40.64,80.06,-0.288,0.288
-2.24768e-04,40.44,80.06,-0.288,0.288
-2.24764e-04,40.64,80.46,-0.284,0.264
-2.24760e-04,41.04,80.06,-0.284,0.288
-2.24756e-04,41.24,79.66,-0.28,0.276
-2.24752e-04,40.84,80.06,-0.276,0.276
-2.24748e-04,41.04,80.06,-0.28,0.276
-2.24744e-04,40.84,80.06,-0.28,0.276
-2.24740e-04,41.04,80.86,-0.284,0.276
-2.24736e-04,40.64,79.66,-0.276,0.264
-2.24732e-04,40.84,80.06,-0.276,0.276
-2.24728e-04,40.64,79.66,-0.28,0.276
-2.24724e-04,40.84,80.06,-0.28,0.3
-2.24720e-04,41.04,80.06,-0.28,0.288
-2.24716e-04,40.64,80.06,-0.276,0.276
-2.24712e-04,40.44,80.06,-0.288,0.276
-2.24708e-04,40.84,80.06,-0.28,0.276
-2.24704e-04,40.84,80.46,-0.284,0.276
-2.24700e-04,40.44,80.06,-0.284,0.288
-2.24696e-04,41.04,80.06,-0.28,0.276
-2.24692e-04,40.84,80.06,-0.28,0.288
-2.24688e-04,40.84,80.06,-0.276,0.264
-2.24684e-04,40.84,80.06,-0.284,0.264
-2.24680e-04,41.04,80.46,-0.288,0.276
-2.24676e-04,40.44,79.66,-0.28,0.276
-2.24672e-04,40.84,80.06,-0.28,0.264
-2.24668e-04,40.84,80.06,-0.28,0.288
-2.24664e-04,40.64,80.86,-0.276,0.276
-2.24660e-04,40.64,80.06,-0.288,0.288
-2.24656e-04,41.04,79.66,-0.28,0.264
-2.24652e-04,40.44,79.66,-0.284,0.276
-2.24648e-04,40.84,80.06,-0.276,0.276
-2.24644e-04,40.64,80.06,-0.28,0.288
-2.24640e-04,40.64,80.06,-0.288,0.276
-2.24636e-04,40.84,80.46,-0.276,0.276
-2.24632e-04,41.04,79.66,-0.276,0.276
-2.24628e-04,40.84,80.06,-0.284,0.276
-2.24624e-04,40.84,80.06,-0.284,0.264
-2.24620e-04,40.64,80.86,-0.28,0.276
-2.24616e-04,41.04,79.66,-0.284,0.264
-2.24612e-04,41.04,80.06,-0.28,0.288
-2.24608e-04,41.04,80.06,-0.28,0.276
-2.24604e-04,40.64,80.06,-0.284,0.288
-2.24600e-04,41.04,78.86,-0.276,0.276
-2.24596e-04,40.84,80.06,-0.284,0.288
-2.24592e-04,41.04,80.06,-0.28,0.276
-2.24588e-04,41.04,80.06,-0.284,0.276
-2.24584e-04,40.84,80.06,-0.284,0.264
-2.24580e-04,40.64,79.66,-0.276,0.276
-2.24576e-04,41.04,80.06,-0.284,0.276
-2.24572e-04,40.84,80.86,-0.284,0.276
-2.24568e-04,40.84,80.06,-0.28,0.264
-2.24564e-04,40.84,80.06,-0.276,0.276
-2.24560e-04,40.84,80.06,-0.284,0.264
-2.24556e-04,40.64,80.06,-0.284,0.276
-2.24552e-04,41.04,79.66,-0.284,0.288
-2.24548e-04,41.04,79.66,-0.276,0.3
-2.24544e-04,40.84,80.06,-0.284,0.276
-2.24540e-04,40.84,79.66,-0.28,0.276
-2.24536e-04,40.84,80.06,-0.28,0.276
-2.24532e-04,40.84,80.06,-0.28,0.276
-2.24528e-04,40.84,80.06,-0.284,0.276
-2.24524e-04,40.44,80.06,-0.276,0.276
-2.24520e-04,41.04,80.06,-0.276,0.276
-2.24516e-04,40.84,80.46,-0.284,0.288
-2.24512e-04,40.64,80.06,-0.284,0.276
-2.24508e-04,41.04,79.66,-0.284,0.276
-2.24504e-04,40.84,80.86,-0.276,0.276
-2.24500e-04,40.84,80.06,-0.284,0.276
-2.24496e-04,41.44,80.06,-0.28,0.288
-2.24492e-04,40.84,80.46,-0.284,0.288
-2.24488e-04,40.64,79.66,-0.276,0.288
-2.24484e-04,41.04,80.06,-0.28,0.276
-2.24480e-04,40.64,80.06,-0.276,0.276
-2.24476e-04,41.04,80.06,-0.28,0.288
-2.24472e-04,41.04,80.06,-0.28,0.264
-2.24468e-04,40.84,80.06,-0.284,0.276
-2.24464e-04,40.84,80.06,-0.284,0.276
-2.24460e-04,41.04,80.06,-0.28,0.276
-2.24456e-04,40.64,80.06,-0.276,0.288
-2.24452e-04,40.84,80.06,-0.284,0.276
-2.24448e-04,41.04,79.66,-0.284,0.276
-2.24444e-04,41.04,80.06,-0.284,0.276
-2.24440e-04,40.84,80.46,-0.268,0.252
-2.24436e-04,40.84,80.06,-0.28,0.276
-2.24432e-04,40.84,80.06,-0.284,0.276
-2.24428e-04,41.04,80.46,-0.28,0.276
-2.24424e-04,40.64,80.06,-0.28,0.264
-2.24420e-04,40.84,80.86,-0.28,0.288
-2.24416e-04,40.84,80.06,-0.284,0.288
-2.24412e-04,40.84,80.46,-0.28,0.264
-2.24408e-04,40.84,79.66,-0.28,0.276
-2.24404e-04,41.04,80.06,-0.28,0.276
-2.24400e-04,41.24,80.46,-0.276,0.264
-2.24396e-04,40.84,80.46,-0.284,0.276
-2.24392e-04,41.04,80.06,-0.284,0.264
-2.24388e-04,40.84,80.06,-0.284,0.276
-2.24384e-04,41.24,80.06,-0.292,0.276
-2.24380e-04,41.04,80.46,-0.284,0.264
-2.24376e-04,40.84,80.46,-0.276,0.276
-2.24372e-04,40.84,80.46,-0.28,0.288
-2.24368e-04,40.84,80.06,-0.28,0.264
-2.24364e-04,40.84,80.06,-0.284,0.264
-2.24360e-04,41.04,80.06,-0.276,0.276
-2.24356e-04,41.04,80.06,-0.276,0.276
-2.24352e-04,40.84,80.06,-0.28,0.288
-2.24348e-04,40.84,80.06,-0.28,0.276
-2.24344e-04,41.04,79.66,-0.276,0.264
-2.24340e-04,40.84,79.66,-0.284,0.276
-2.24336e-04,40.84,80.06,-0.28,0.276
-2.24332e-04,40.84,80.06,-0.276,0.276
-2.24328e-04,40.84,79.66,-0.284,0.264
-2.24324e-04,40.64,80.06,-0.284,0.264
-2.24320e-04,40.84,80.46,-0.284,0.288
-2.24316e-04,40.64,79.66,-0.284,0.264
