compressed_data_localization/data/Flavio/Faults_d10_FPP_IDC/tek0394.csv

Model,MSO4054
Firmware Version,2.48

Point Format,Y,,,
Horizontal Units,S,,,
Horizontal Scale,4e-05,,,
Sample Interval,4e-09,,,
Record Length,100000,,,
Gating,0.0% to 100.0%,0.0% to 100.0%,0.0% to 100.0%,0.0% to 100.0%
Probe Attenuation,50,50,1,1
Vertical Units,V,V,A,A
Vertical Offset,-0.16,0.06,0,0
Vertical Scale,5,10,0.1,0.65
Label,VPPR,VPPL,IPR,IPL
TIME,CH1,CH2,CH3,CH4
-1.64000e-04,40.64,80.46,-0.276,0.26
-1.63996e-04,40.84,80.46,-0.28,0.26
-1.63992e-04,40.64,79.66,-0.28,0.26
-1.63988e-04,40.84,80.46,-0.28,0.26
-1.63984e-04,40.84,80.06,-0.284,0.286
-1.63980e-04,40.84,80.86,-0.28,0.26
-1.63976e-04,40.64,80.06,-0.276,0.26
-1.63972e-04,40.84,80.06,-0.288,0.312
-1.63968e-04,41.04,80.06,-0.288,0.26
-1.63964e-04,40.84,80.06,-0.284,0.312
-1.63960e-04,40.84,80.06,-0.28,0.234
-1.63956e-04,41.04,80.06,-0.284,0.26
-1.63952e-04,41.04,80.06,-0.284,0.26
-1.63948e-04,40.84,79.26,-0.276,0.286
-1.63944e-04,41.04,80.06,-0.28,0.286
-1.63940e-04,41.04,80.46,-0.292,0.26
-1.63936e-04,40.84,80.06,-0.284,0.26
-1.63932e-04,41.24,79.66,-0.28,0.286
-1.63928e-04,40.84,80.06,-0.284,0.26
-1.63924e-04,40.84,80.06,-0.284,0.286
-1.63920e-04,40.44,80.06,-0.288,0.26
-1.63916e-04,40.44,80.06,-0.28,0.286
-1.63912e-04,41.04,80.46,-0.28,0.286
-1.63908e-04,41.04,80.46,-0.276,0.286
-1.63904e-04,40.64,80.46,-0.284,0.26
-1.63900e-04,40.84,80.06,-0.288,0.312
-1.63896e-04,41.44,80.06,-0.284,0.312
-1.63892e-04,40.84,80.46,-0.284,0.26
-1.63888e-04,40.84,80.06,-0.28,0.208
-1.63884e-04,41.04,79.66,-0.28,0.26
-1.63880e-04,40.84,79.66,-0.284,0.286
-1.63876e-04,40.84,80.06,-0.284,0.26
-1.63872e-04,40.44,79.66,-0.276,0.286
-1.63868e-04,40.84,80.06,-0.28,0.286
-1.63864e-04,41.24,80.06,-0.28,0.26
-1.63860e-04,41.04,80.46,-0.276,0.26
-1.63856e-04,41.04,80.46,-0.28,0.26
-1.63852e-04,41.04,79.66,-0.28,0.26
-1.63848e-04,40.84,80.06,-0.284,0.286
-1.63844e-04,40.64,80.46,-0.276,0.286
-1.63840e-04,40.84,79.66,-0.276,0.26
-1.63836e-04,41.24,80.06,-0.28,0.26
-1.63832e-04,40.84,80.06,-0.276,0.26
-1.63828e-04,40.64,80.46,-0.28,0.312
-1.63824e-04,41.04,79.66,-0.28,0.26
-1.63820e-04,41.24,80.06,-0.28,0.286
-1.63816e-04,40.24,80.06,-0.28,0.26
-1.63812e-04,40.44,80.06,-0.284,0.26
-1.63808e-04,40.24,80.46,-0.288,0.286
-1.63804e-04,40.84,80.86,-0.284,0.26
-1.63800e-04,41.04,79.66,-0.28,0.26
-1.63796e-04,40.84,80.46,-0.28,0.26
-1.63792e-04,41.24,80.06,-0.276,0.26
-1.63788e-04,41.04,80.46,-0.284,0.286
-1.63784e-04,40.44,80.06,-0.28,0.286
-1.63780e-04,41.04,80.46,-0.284,0.26
-1.63776e-04,40.64,80.06,-0.284,0.234
-1.63772e-04,40.84,80.06,-0.284,0.234
-1.63768e-04,41.04,80.06,-0.284,0.234
-1.63764e-04,40.84,80.06,-0.288,0.234
-1.63760e-04,40.84,80.06,-0.284,0.26
-1.63756e-04,41.24,80.06,-0.284,0.26
-1.63752e-04,40.84,80.06,-0.292,0.286
-1.63748e-04,40.64,80.06,-0.28,0.26
-1.63744e-04,40.64,80.06,-0.276,0.286
-1.63740e-04,40.64,80.06,-0.284,0.26
-1.63736e-04,41.04,80.86,-0.284,0.312
-1.63732e-04,41.04,79.66,-0.284,0.26
-1.63728e-04,41.24,80.06,-0.292,0.234
-1.63724e-04,40.84,80.06,-0.284,0.286
-1.63720e-04,40.84,80.46,-0.284,0.26
-1.63716e-04,40.84,80.46,-0.276,0.286
-1.63712e-04,41.04,80.06,-0.276,0.26
-1.63708e-04,41.04,80.06,-0.28,0.286
-1.63704e-04,40.84,80.06,-0.284,0.234
-1.63700e-04,40.84,80.06,-0.284,0.26
-1.63696e-04,41.04,80.06,-0.284,0.286
-1.63692e-04,40.84,80.46,-0.28,0.286
-1.63688e-04,40.84,80.06,-0.288,0.26
-1.63684e-04,41.04,80.46,-0.276,0.26
-1.63680e-04,41.04,80.46,-0.28,0.26
-1.63676e-04,40.84,80.86,-0.28,0.26
-1.63672e-04,41.24,80.06,-0.272,0.286
-1.63668e-04,40.84,80.46,-0.28,0.286
-1.63664e-04,40.44,80.46,-0.284,0.26
-1.63660e-04,40.84,80.06,-0.284,0.234
-1.63656e-04,40.84,80.46,-0.28,0.286
-1.63652e-04,41.04,80.06,-0.284,0.286
-1.63648e-04,41.04,80.06,-0.28,0.26
-1.63644e-04,40.84,80.06,-0.276,0.26
-1.63640e-04,40.44,80.06,-0.28,0.286
-1.63636e-04,41.04,80.06,-0.28,0.286
-1.63632e-04,41.04,80.06,-0.276,0.286
-1.63628e-04,41.04,80.46,-0.288,0.26
-1.63624e-04,40.84,80.06,-0.284,0.286
-1.63620e-04,41.24,79.66,-0.284,0.286
-1.63616e-04,40.84,80.06,-0.284,0.286
-1.63612e-04,40.84,80.06,-0.288,0.312
-1.63608e-04,40.84,80.06,-0.284,0.26
-1.63604e-04,40.84,79.66,-0.284,0.26
-1.63600e-04,40.84,80.06,-0.284,0.286
-1.63596e-04,40.84,80.06,-0.284,0.286
-1.63592e-04,41.04,80.06,-0.28,0.234
-1.63588e-04,40.84,79.66,-0.284,0.286
-1.63584e-04,41.04,80.46,-0.284,0.234
-1.63580e-04,40.84,80.46,-0.276,0.286
-1.63576e-04,41.04,80.06,-0.284,0.26
-1.63572e-04,40.84,79.66,-0.288,0.26
-1.63568e-04,41.04,80.46,-0.284,0.26
-1.63564e-04,41.04,80.06,-0.284,0.234
-1.63560e-04,41.04,80.06,-0.28,0.26
-1.63556e-04,40.84,80.06,-0.28,0.26
-1.63552e-04,41.04,80.06,-0.284,0.286
-1.63548e-04,40.84,80.46,-0.276,0.26
-1.63544e-04,40.64,79.66,-0.28,0.286
-1.63540e-04,40.64,80.06,-0.284,0.234
-1.63536e-04,40.84,79.66,-0.28,0.26
-1.63532e-04,40.84,80.46,-0.28,0.26
-1.63528e-04,40.64,80.06,-0.28,0.286
-1.63524e-04,40.84,80.06,-0.284,0.286
-1.63520e-04,41.04,80.06,-0.284,0.26
-1.63516e-04,41.04,80.06,-0.28,0.234
-1.63512e-04,41.04,80.46,-0.276,0.286
-1.63508e-04,40.84,80.06,-0.288,0.26
-1.63504e-04,40.84,79.66,-0.28,0.26
-1.63500e-04,41.24,80.06,-0.28,0.286
-1.63496e-04,40.84,80.46,-0.28,0.286
-1.63492e-04,40.64,80.06,-0.284,0.286
-1.63488e-04,40.84,79.66,-0.276,0.26
-1.63484e-04,40.64,79.66,-0.284,0.26
-1.63480e-04,40.84,79.66,-0.28,0.286
-1.63476e-04,41.24,79.66,-0.276,0.26
-1.63472e-04,40.64,80.46,-0.288,0.26
-1.63468e-04,40.84,80.06,-0.288,0.26
-1.63464e-04,40.84,80.46,-0.28,0.26
-1.63460e-04,40.44,80.46,-0.28,0.26
-1.63456e-04,40.84,80.46,-0.28,0.286
-1.63452e-04,40.84,80.46,-0.276,0.286
-1.63448e-04,40.84,80.06,-0.288,0.312
-1.63444e-04,40.84,80.46,-0.28,0.26
-1.63440e-04,40.64,79.66,-0.284,0.234
-1.63436e-04,40.44,80.06,-0.28,0.26
-1.63432e-04,41.04,80.06,-0.284,0.26
-1.63428e-04,40.84,80.46,-0.276,0.26
-1.63424e-04,41.24,80.06,-0.276,0.26
-1.63420e-04,41.04,80.06,-0.284,0.26
-1.63416e-04,40.44,80.46,-0.276,0.286
-1.63412e-04,41.04,80.06,-0.28,0.26
-1.63408e-04,40.84,80.46,-0.276,0.286
-1.63404e-04,40.84,80.46,-0.284,0.26
-1.63400e-04,40.64,80.86,-0.284,0.26
-1.63396e-04,40.64,80.46,-0.276,0.286
-1.63392e-04,40.84,80.06,-0.28,0.286
-1.63388e-04,40.64,80.06,-0.276,0.286
-1.63384e-04,40.84,79.66,-0.284,0.234
-1.63380e-04,41.24,80.06,-0.272,0.26
-1.63376e-04,41.04,80.46,-0.28,0.26
-1.63372e-04,40.84,80.06,-0.28,0.286
-1.63368e-04,40.84,79.66,-0.284,0.26
-1.63364e-04,41.24,80.06,-0.28,0.26
-1.63360e-04,40.64,79.66,-0.284,0.26
-1.63356e-04,40.84,79.66,-0.28,0.234
-1.63352e-04,41.44,80.06,-0.288,0.26
-1.63348e-04,41.04,79.66,-0.276,0.26
-1.63344e-04,41.24,80.06,-0.28,0.286
-1.63340e-04,41.24,80.06,-0.284,0.26
-1.63336e-04,41.04,80.06,-0.28,0.234
-1.63332e-04,40.84,80.06,-0.288,0.26
-1.63328e-04,41.04,80.06,-0.276,0.26
-1.63324e-04,40.24,80.06,-0.28,0.286
-1.63320e-04,41.04,80.06,-0.284,0.26
-1.63316e-04,41.04,80.06,-0.28,0.286
-1.63312e-04,40.64,79.66,-0.284,0.286
-1.63308e-04,40.64,80.06,-0.28,0.234
-1.63304e-04,41.04,80.06,-0.284,0.312
-1.63300e-04,41.04,80.06,-0.284,0.234
-1.63296e-04,40.84,80.06,-0.28,0.234
-1.63292e-04,40.84,79.66,-0.284,0.26
-1.63288e-04,41.04,80.06,-0.28,0.26
-1.63284e-04,40.84,80.06,-0.288,0.26
-1.63280e-04,40.64,80.06,-0.28,0.26
-1.63276e-04,40.64,80.86,-0.284,0.286
-1.63272e-04,40.64,79.66,-0.28,0.26
-1.63268e-04,40.84,80.06,-0.28,0.286
-1.63264e-04,41.04,80.06,-0.284,0.26
-1.63260e-04,40.84,80.46,-0.28,0.26
-1.63256e-04,40.84,80.06,-0.28,0.26
-1.63252e-04,40.84,80.06,-0.276,0.26
-1.63248e-04,40.84,80.06,-0.28,0.286
-1.63244e-04,40.84,79.66,-0.284,0.26
-1.63240e-04,40.64,80.06,-0.284,0.26
-1.63236e-04,41.04,80.06,-0.284,0.26
-1.63232e-04,40.64,80.06,-0.276,0.234
-1.63228e-04,41.24,80.06,-0.284,0.286
-1.63224e-04,40.84,79.26,-0.288,0.26
-1.63220e-04,41.44,80.46,-0.284,0.286
-1.63216e-04,40.84,80.06,-0.284,0.26
-1.63212e-04,40.84,80.06,-0.276,0.26
-1.63208e-04,40.84,80.06,-0.284,0.234
-1.63204e-04,41.24,80.06,-0.28,0.26
-1.63200e-04,40.64,80.06,-0.284,0.26
-1.63196e-04,41.04,80.06,-0.284,0.286
-1.63192e-04,40.84,80.06,-0.276,0.26
-1.63188e-04,41.04,80.06,-0.28,0.26
-1.63184e-04,40.84,80.06,-0.288,0.286
-1.63180e-04,41.04,80.06,-0.276,0.286
-1.63176e-04,41.04,80.46,-0.284,0.234
-1.63172e-04,40.84,80.06,-0.276,0.312
-1.63168e-04,40.64,80.46,-0.284,0.26
-1.63164e-04,40.84,79.66,-0.28,0.26
-1.63160e-04,40.44,80.06,-0.28,0.26
-1.63156e-04,41.04,80.46,-0.276,0.26
-1.63152e-04,40.84,80.86,-0.284,0.286
-1.63148e-04,40.84,79.66,-0.28,0.26
-1.63144e-04,40.64,80.06,-0.284,0.234
-1.63140e-04,41.04,80.06,-0.28,0.26
-1.63136e-04,40.84,80.06,-0.284,0.286
-1.63132e-04,40.64,80.06,-0.28,0.26
-1.63128e-04,40.84,80.06,-0.284,0.26
-1.63124e-04,40.84,80.46,-0.28,0.286
-1.63120e-04,41.04,80.06,-0.288,0.234
-1.63116e-04,40.64,80.46,-0.276,0.286
-1.63112e-04,40.84,79.66,-0.28,0.26
-1.63108e-04,40.64,80.06,-0.28,0.26
-1.63104e-04,41.04,79.66,-0.284,0.286
-1.63100e-04,40.64,80.06,-0.288,0.26
-1.63096e-04,41.24,80.06,-0.28,0.286
-1.63092e-04,40.44,79.66,-0.276,0.286
-1.63088e-04,41.04,80.06,-0.288,0.234
-1.63084e-04,40.84,80.46,-0.296,0.286
-1.63080e-04,41.24,80.06,-0.28,0.286
-1.63076e-04,40.64,80.06,-0.284,0.312
-1.63072e-04,41.04,80.06,-0.276,0.26
-1.63068e-04,40.84,80.06,-0.28,0.286
-1.63064e-04,41.04,80.06,-0.276,0.312
-1.63060e-04,41.24,79.26,-0.28,0.286
-1.63056e-04,41.24,80.06,-0.276,0.312
-1.63052e-04,41.24,80.46,-0.28,0.286
-1.63048e-04,41.64,79.66,-0.284,0.26
-1.63044e-04,41.24,80.06,-0.28,0.26
-1.63040e-04,40.84,80.46,-0.276,0.312
-1.63036e-04,40.84,80.46,-0.28,0.234
-1.63032e-04,40.64,80.46,-0.284,0.26
-1.63028e-04,41.04,80.06,-0.284,0.26
-1.63024e-04,40.64,80.06,-0.284,0.26
-1.63020e-04,40.84,80.06,-0.28,0.26
-1.63016e-04,40.64,80.06,-0.28,0.312
-1.63012e-04,41.04,79.66,-0.28,0.286
-1.63008e-04,41.24,80.06,-0.276,0.286
-1.63004e-04,40.84,80.46,-0.276,0.286
-1.63000e-04,40.84,80.06,-0.276,0.286
-1.62996e-04,41.04,80.06,-0.276,0.26
-1.62992e-04,41.04,80.06,-0.288,0.312
-1.62988e-04,41.44,80.46,-0.288,0.286
-1.62984e-04,40.84,80.06,-0.284,0.26
-1.62980e-04,40.84,80.06,-0.28,0.286
-1.62976e-04,41.24,80.06,-0.288,0.338
-1.62972e-04,41.04,80.46,-0.28,0.286
-1.62968e-04,40.84,80.06,-0.276,0.26
-1.62964e-04,40.84,80.06,-0.284,0.26
-1.62960e-04,41.24,80.46,-0.272,0.26
-1.62956e-04,41.04,80.06,-0.28,0.286
-1.62952e-04,41.04,80.46,-0.276,0.26
-1.62948e-04,41.04,80.06,-0.28,0.26
-1.62944e-04,40.44,80.46,-0.28,0.26
-1.62940e-04,40.84,79.66,-0.28,0.286
-1.62936e-04,40.84,80.06,-0.284,0.312
-1.62932e-04,40.84,80.06,-0.288,0.26
-1.62928e-04,40.64,80.06,-0.28,0.26
-1.62924e-04,40.84,80.06,-0.28,0.286
-1.62920e-04,40.84,80.06,-0.284,0.312
-1.62916e-04,40.84,80.06,-0.28,0.26
-1.62912e-04,40.84,80.06,-0.28,0.234
-1.62908e-04,40.84,80.06,-0.28,0.286
-1.62904e-04,41.04,79.66,-0.284,0.286
-1.62900e-04,40.64,80.46,-0.284,0.286
-1.62896e-04,40.84,80.06,-0.288,0.26
-1.62892e-04,40.84,80.06,-0.28,0.26
-1.62888e-04,40.84,79.66,-0.276,0.234
-1.62884e-04,40.84,80.06,-0.284,0.312
-1.62880e-04,40.84,79.66,-0.276,0.286
-1.62876e-04,41.04,80.06,-0.284,0.286
-1.62872e-04,41.04,80.06,-0.288,0.26
-1.62868e-04,40.64,80.06,-0.28,0.312
-1.62864e-04,40.64,80.06,-0.284,0.26
-1.62860e-04,40.64,80.06,-0.28,0.26
-1.62856e-04,40.84,80.06,-0.28,0.26
-1.62852e-04,41.04,79.66,-0.284,0.286
-1.62848e-04,40.84,80.86,-0.276,0.26
-1.62844e-04,40.84,80.46,-0.276,0.234
-1.62840e-04,40.64,80.06,-0.288,0.26
-1.62836e-04,40.64,80.06,-0.28,0.26
-1.62832e-04,41.04,80.46,-0.28,0.26
-1.62828e-04,41.04,79.66,-0.288,0.286
-1.62824e-04,40.64,80.06,-0.284,0.26
-1.62820e-04,40.84,79.66,-0.276,0.26
-1.62816e-04,41.04,80.46,-0.284,0.286
-1.62812e-04,40.84,80.46,-0.288,0.26
-1.62808e-04,41.04,80.06,-0.276,0.286
-1.62804e-04,41.04,80.06,-0.284,0.286
-1.62800e-04,41.04,80.06,-0.276,0.26
-1.62796e-04,40.84,80.46,-0.28,0.26
-1.62792e-04,40.84,80.06,-0.28,0.26
-1.62788e-04,40.84,80.46,-0.28,0.234
-1.62784e-04,40.84,80.06,-0.28,0.26
-1.62780e-04,40.64,80.06,-0.28,0.286
-1.62776e-04,40.64,80.06,-0.28,0.286
-1.62772e-04,40.44,80.06,-0.276,0.286
-1.62768e-04,40.64,80.46,-0.276,0.26
-1.62764e-04,41.04,80.06,-0.28,0.286
-1.62760e-04,40.84,80.06,-0.276,0.286
-1.62756e-04,40.44,80.46,-0.284,0.26
-1.62752e-04,41.24,80.06,-0.288,0.286
-1.62748e-04,40.64,80.06,-0.28,0.286
-1.62744e-04,41.04,80.06,-0.276,0.26
-1.62740e-04,41.04,80.46,-0.276,0.286
-1.62736e-04,40.44,80.06,-0.28,0.286
-1.62732e-04,40.44,80.06,-0.284,0.26
-1.62728e-04,40.84,80.06,-0.28,0.286
-1.62724e-04,41.04,80.46,-0.288,0.234
-1.62720e-04,41.24,80.06,-0.28,0.26
-1.62716e-04,40.84,80.06,-0.276,0.26
-1.62712e-04,40.64,80.46,-0.276,0.286
-1.62708e-04,40.84,79.66,-0.276,0.26
-1.62704e-04,41.04,80.06,-0.296,0.26
-1.62700e-04,40.84,79.66,-0.284,0.26
-1.62696e-04,40.64,79.66,-0.28,0.26
-1.62692e-04,40.64,80.06,-0.284,0.286
-1.62688e-04,40.64,80.46,-0.284,0.286
-1.62684e-04,40.84,80.06,-0.28,0.286
-1.62680e-04,40.64,80.06,-0.292,0.26
-1.62676e-04,40.64,80.06,-0.28,0.26
-1.62672e-04,41.24,80.06,-0.28,0.26
-1.62668e-04,41.04,80.86,-0.28,0.286
-1.62664e-04,41.04,80.06,-0.284,0.312
-1.62660e-04,41.04,79.66,-0.284,0.286
-1.62656e-04,40.84,80.06,-0.28,0.26
-1.62652e-04,41.04,80.06,-0.28,0.286
-1.62648e-04,40.44,80.06,-0.284,0.286
-1.62644e-04,40.64,80.06,-0.276,0.286
-1.62640e-04,40.84,80.06,-0.28,0.286
-1.62636e-04,40.84,80.06,-0.284,0.26
-1.62632e-04,41.04,79.66,-0.276,0.26
-1.62628e-04,41.24,80.06,-0.28,0.26
-1.62624e-04,41.04,79.66,-0.284,0.26
-1.62620e-04,40.64,80.86,-0.284,0.26
-1.62616e-04,41.04,80.06,-0.28,0.26
-1.62612e-04,40.84,80.06,-0.28,0.286
-1.62608e-04,41.24,80.06,-0.284,0.26
-1.62604e-04,40.84,79.66,-0.28,0.286
-1.62600e-04,40.84,80.86,-0.28,0.26
-1.62596e-04,41.04,80.06,-0.28,0.26
-1.62592e-04,41.04,80.06,-0.276,0.26
-1.62588e-04,40.84,80.06,-0.284,0.26
-1.62584e-04,41.24,79.66,-0.288,0.26
-1.62580e-04,40.84,80.06,-0.28,0.26
-1.62576e-04,40.84,80.46,-0.288,0.26
-1.62572e-04,40.84,80.06,-0.28,0.26
-1.62568e-04,40.84,80.46,-0.276,0.312
-1.62564e-04,41.04,80.46,-0.276,0.338
-1.62560e-04,40.84,79.66,-0.272,0.26
-1.62556e-04,40.64,80.06,-0.276,0.286
-1.62552e-04,40.44,80.06,-0.284,0.26
-1.62548e-04,40.84,80.06,-0.28,0.26
-1.62544e-04,40.44,80.06,-0.284,0.26
-1.62540e-04,41.24,80.06,-0.284,0.286
-1.62536e-04,41.04,80.06,-0.284,0.26
-1.62532e-04,41.04,79.66,-0.288,0.312
-1.62528e-04,41.04,79.66,-0.288,0.286
-1.62524e-04,41.24,80.06,-0.284,0.286
-1.62520e-04,40.84,79.66,-0.28,0.26
-1.62516e-04,40.64,80.06,-0.276,0.26
-1.62512e-04,40.84,80.06,-0.28,0.286
-1.62508e-04,41.24,79.66,-0.288,0.26
-1.62504e-04,40.64,80.06,-0.28,0.234
-1.62500e-04,40.84,80.06,-0.288,0.26
-1.62496e-04,40.64,79.66,-0.28,0.26
-1.62492e-04,40.84,80.06,-0.276,0.234
-1.62488e-04,40.84,79.66,-0.284,0.286
-1.62484e-04,40.84,80.06,-0.276,0.26
-1.62480e-04,40.84,80.06,-0.284,0.286
-1.62476e-04,41.04,80.06,-0.28,0.26
-1.62472e-04,40.84,80.06,-0.272,0.26
-1.62468e-04,40.84,79.26,-0.284,0.26
-1.62464e-04,40.84,79.66,-0.28,0.312
-1.62460e-04,41.24,79.66,-0.28,0.26
-1.62456e-04,41.04,79.66,-0.284,0.26
-1.62452e-04,40.84,79.66,-0.288,0.26
-1.62448e-04,41.04,80.46,-0.28,0.26
-1.62444e-04,41.04,80.06,-0.28,0.234
-1.62440e-04,40.84,80.06,-0.276,0.286
-1.62436e-04,40.84,80.46,-0.276,0.234
-1.62432e-04,41.04,80.06,-0.284,0.26
-1.62428e-04,40.84,80.46,-0.272,0.286
-1.62424e-04,41.04,80.06,-0.284,0.286
-1.62420e-04,40.84,80.06,-0.284,0.234
-1.62416e-04,40.64,80.06,-0.28,0.234
-1.62412e-04,40.64,80.06,-0.276,0.312
-1.62408e-04,41.04,80.06,-0.28,0.26
-1.62404e-04,40.84,80.06,-0.288,0.26
-1.62400e-04,40.64,80.06,-0.284,0.26
-1.62396e-04,40.44,80.06,-0.284,0.26
-1.62392e-04,41.04,80.06,-0.276,0.26
-1.62388e-04,40.84,80.06,-0.288,0.26
-1.62384e-04,41.04,80.06,-0.284,0.26
-1.62380e-04,41.04,80.06,-0.28,0.26
-1.62376e-04,40.84,80.06,-0.284,0.26
-1.62372e-04,40.84,80.06,-0.28,0.26
-1.62368e-04,40.84,80.06,-0.28,0.26
-1.62364e-04,40.84,80.06,-0.284,0.26
-1.62360e-04,41.04,79.66,-0.28,0.286
-1.62356e-04,41.04,80.06,-0.284,0.312
-1.62352e-04,40.84,80.06,-0.28,0.286
-1.62348e-04,41.04,79.66,-0.276,0.26
-1.62344e-04,40.84,80.06,-0.284,0.286
-1.62340e-04,40.64,80.46,-0.284,0.26
-1.62336e-04,40.44,79.66,-0.28,0.26
-1.62332e-04,40.84,80.06,-0.284,0.26
-1.62328e-04,41.04,80.46,-0.28,0.286
-1.62324e-04,41.04,80.06,-0.284,0.26
-1.62320e-04,41.24,80.06,-0.276,0.26
-1.62316e-04,41.04,80.06,-0.28,0.26
-1.62312e-04,40.84,80.46,-0.284,0.26
-1.62308e-04,40.84,80.06,-0.28,0.26
-1.62304e-04,41.04,79.66,-0.288,0.286
-1.62300e-04,40.84,79.66,-0.276,0.286
-1.62296e-04,40.64,80.06,-0.28,0.26
-1.62292e-04,40.84,80.06,-0.284,0.26
-1.62288e-04,41.04,79.66,-0.28,0.286
-1.62284e-04,40.84,80.46,-0.284,0.26
-1.62280e-04,40.84,79.66,-0.28,0.26
-1.62276e-04,41.24,79.66,-0.28,0.26
-1.62272e-04,40.84,80.06,-0.28,0.286
-1.62268e-04,40.84,80.06,-0.28,0.234
-1.62264e-04,40.84,80.06,-0.28,0.234
-1.62260e-04,41.24,80.06,-0.28,0.26
-1.62256e-04,40.84,80.06,-0.276,0.286
-1.62252e-04,40.84,80.46,-0.28,0.286
-1.62248e-04,40.84,80.06,-0.276,0.286
-1.62244e-04,41.24,79.66,-0.276,0.286
-1.62240e-04,40.64,80.06,-0.28,0.26
-1.62236e-04,41.24,80.46,-0.276,0.26
-1.62232e-04,41.24,79.66,-0.276,0.286
-1.62228e-04,40.84,80.06,-0.284,0.26
-1.62224e-04,40.84,80.46,-0.288,0.286
-1.62220e-04,41.04,80.06,-0.276,0.26
-1.62216e-04,41.04,80.46,-0.276,0.26
-1.62212e-04,40.84,80.06,-0.28,0.286
-1.62208e-04,40.84,80.46,-0.284,0.234
-1.62204e-04,40.84,80.06,-0.284,0.234
-1.62200e-04,40.84,80.06,-0.28,0.286
-1.62196e-04,40.84,80.06,-0.284,0.26
-1.62192e-04,41.24,80.06,-0.276,0.26
-1.62188e-04,40.64,80.06,-0.28,0.26
-1.62184e-04,41.04,79.66,-0.284,0.234
-1.62180e-04,40.84,79.66,-0.288,0.26
-1.62176e-04,40.84,80.06,-0.284,0.26
-1.62172e-04,40.84,80.06,-0.28,0.26
-1.62168e-04,41.24,80.06,-0.28,0.26
-1.62164e-04,41.04,80.06,-0.28,0.26
-1.62160e-04,41.04,80.06,-0.284,0.26
-1.62156e-04,40.84,80.46,-0.276,0.26
-1.62152e-04,41.04,80.06,-0.284,0.26
-1.62148e-04,41.04,80.06,-0.284,0.26
-1.62144e-04,41.24,80.06,-0.284,0.286
-1.62140e-04,41.04,80.86,-0.276,0.26
-1.62136e-04,41.04,79.66,-0.28,0.312
-1.62132e-04,40.84,79.66,-0.28,0.26
-1.62128e-04,41.24,80.06,-0.284,0.286
-1.62124e-04,41.44,80.06,-0.28,0.234
-1.62120e-04,41.04,80.06,-0.288,0.26
-1.62116e-04,40.84,79.66,-0.28,0.286
-1.62112e-04,40.84,80.06,-0.284,0.234
-1.62108e-04,40.84,80.06,-0.284,0.26
-1.62104e-04,40.44,80.06,-0.284,0.234
-1.62100e-04,41.04,80.06,-0.292,0.26
-1.62096e-04,40.84,80.46,-0.28,0.26
-1.62092e-04,40.84,80.06,-0.28,0.286
-1.62088e-04,40.84,80.06,-0.292,0.26
-1.62084e-04,41.04,80.06,-0.284,0.286
-1.62080e-04,40.84,80.46,-0.284,0.26
-1.62076e-04,40.84,80.06,-0.276,0.286
-1.62072e-04,40.64,80.06,-0.284,0.26
-1.62068e-04,40.84,80.46,-0.276,0.234
-1.62064e-04,40.84,80.06,-0.284,0.26
-1.62060e-04,41.04,79.66,-0.28,0.26
-1.62056e-04,40.64,80.46,-0.284,0.26
-1.62052e-04,41.04,80.06,-0.276,0.286
-1.62048e-04,40.84,80.06,-0.28,0.26
-1.62044e-04,40.64,80.06,-0.28,0.26
-1.62040e-04,40.84,80.06,-0.28,0.286
-1.62036e-04,41.04,80.06,-0.28,0.26
-1.62032e-04,40.84,80.06,-0.284,0.26
-1.62028e-04,40.64,80.06,-0.276,0.234
-1.62024e-04,40.64,79.66,-0.28,0.26
-1.62020e-04,41.24,80.06,-0.272,0.26
-1.62016e-04,40.64,79.66,-0.28,0.26
-1.62012e-04,40.84,79.66,-0.28,0.26
-1.62008e-04,40.84,80.06,-0.28,0.286
-1.62004e-04,40.64,80.06,-0.284,0.234
-1.62000e-04,41.04,80.06,-0.28,0.26
-1.61996e-04,40.84,80.06,-0.288,0.26
-1.61992e-04,40.64,80.06,-0.276,0.26
-1.61988e-04,41.24,80.06,-0.284,0.26
-1.61984e-04,41.04,80.06,-0.284,0.26
-1.61980e-04,40.64,80.06,-0.28,0.26
-1.61976e-04,40.64,80.06,-0.284,0.286
-1.61972e-04,40.44,80.06,-0.288,0.26
-1.61968e-04,40.84,80.46,-0.288,0.234
-1.61964e-04,40.84,80.46,-0.28,0.286
-1.61960e-04,40.44,80.46,-0.28,0.286
-1.61956e-04,40.64,80.06,-0.28,0.234
-1.61952e-04,40.64,80.06,-0.28,0.26
-1.61948e-04,40.84,80.06,-0.28,0.26
-1.61944e-04,41.04,80.06,-0.284,0.26
-1.61940e-04,41.04,79.66,-0.28,0.26
-1.61936e-04,40.84,80.06,-0.276,0.26
-1.61932e-04,40.84,79.66,-0.28,0.26
-1.61928e-04,41.24,80.06,-0.284,0.234
-1.61924e-04,40.64,80.86,-0.284,0.26
-1.61920e-04,41.04,80.06,-0.28,0.26
-1.61916e-04,41.04,80.06,-0.284,0.286
-1.61912e-04,40.84,80.46,-0.276,0.286
-1.61908e-04,40.84,80.46,-0.284,0.26
-1.61904e-04,40.64,80.46,-0.288,0.286
-1.61900e-04,41.04,79.66,-0.288,0.26
-1.61896e-04,41.04,80.46,-0.284,0.286
-1.61892e-04,41.04,80.06,-0.288,0.286
-1.61888e-04,41.04,79.66,-0.28,0.286
